<?xml version="1.0" standalone="no"?>
<!DOCTYPE svg PUBLIC "-//W3C//DTD SVG 1.1//EN" "http://www.w3.org/Graphics/SVG/1.1/DTD/svg11.dtd" >
<svg xmlns="http://www.w3.org/2000/svg">
<metadata>Generated by IcoMoon</metadata>
<defs>
<font id="Pilates-City" horiz-adv-x="1024">
<font-face units-per-em="1024" ascent="960" descent="-64" />
<missing-glyph horiz-adv-x="1024" />
<glyph unicode="&#x20;" horiz-adv-x="512" d="" />
<glyph unicode="&#xe900;" glyph-name="user" d="M486.4 396.8c-155.29 0-281.6 126.31-281.6 281.6s126.31 281.6 281.6 281.6 281.6-126.31 281.6-281.6-126.31-281.6-281.6-281.6zM486.4 908.8c-127.027 0-230.4-103.373-230.4-230.4s103.373-230.4 230.4-230.4c127.027 0 230.4 103.373 230.4 230.4s-103.373 230.4-230.4 230.4zM896-64h-819.2c-42.342 0-76.8 34.458-76.8 76.8 0 3.482 0.717 86.272 62.72 168.96 36.096 48.128 85.504 86.374 146.893 113.613 74.957 33.331 168.090 50.227 276.787 50.227s201.83-16.896 276.787-50.227c61.389-27.29 110.797-65.485 146.893-113.613 62.003-82.688 62.72-165.478 62.72-168.96 0-42.342-34.458-76.8-76.8-76.8zM486.4 294.4c-178.534 0-310.272-48.794-380.979-141.107-52.992-69.171-54.17-139.878-54.221-140.595 0-14.029 11.469-25.498 25.6-25.498h819.2c14.131 0 25.6 11.469 25.6 25.6 0 0.614-1.178 71.322-54.221 140.493-70.758 92.314-202.496 141.107-380.979 141.107z" />
<glyph unicode="&#xe901;" glyph-name="chevron-down" horiz-adv-x="2048" d="M1024 439.018l-503.018 520.982h-520.982l1024-1024 1024 1024h-503.018z" />
<glyph unicode="&#xe902;" glyph-name="envelope" d="M896 652.8h-819.2c-42.342 0-76.8-34.458-76.8-76.8v-460.8c0-42.342 34.458-76.8 76.8-76.8h819.2c42.342 0 76.8 34.458 76.8 76.8v460.8c0 42.342-34.458 76.8-76.8 76.8zM896 601.6c1.536 0 2.97-0.154 4.454-0.41l-385.638-257.075c-14.848-9.882-41.933-9.882-56.781 0l-385.638 257.075c1.434 0.256 2.918 0.41 4.454 0.41h819.2zM896 89.6h-819.2c-14.131 0-25.6 11.469-25.6 25.6v438.579l378.419-252.262c15.923-10.598 36.352-15.923 56.781-15.923s40.858 5.325 56.781 15.923l378.419 252.262v-438.579c0-14.131-11.469-25.6-25.6-25.6z" />
<glyph unicode="&#xe903;" glyph-name="smartphone" horiz-adv-x="773" d="M427.301-59.487l-344.185 98.675c-48.404 14.306-83.123 58.361-83.123 110.526 0 11.203 1.601 22.033 4.588 32.272l-0.203-0.813 199.506 695.576c14.259 48.477 58.35 83.265 110.567 83.265 11.213 0 22.052-1.604 32.298-4.596l-0.813 0.203 344.185-98.675c48.386-14.318 83.088-58.364 83.088-110.515 0-11.158-1.589-21.945-4.552-32.147l0.202 0.813-199.506-695.913c-14.291-48.386-58.326-83.094-110.467-83.094-11.25 0-22.122 1.616-32.398 4.628l0.813-0.204zM331.118 903.691c-5.020 1.485-10.787 2.34-16.754 2.34-27.723 0-51.138-18.446-58.641-43.735l-0.11-0.433-199.506-695.576c-1.482-5.015-2.335-10.776-2.335-16.736 0-27.746 18.476-51.177 43.797-58.659l0.433-0.11 344.185-98.675c5.020-1.485 10.787-2.34 16.754-2.34 27.723 0 51.138 18.446 58.641 43.735l0.11 0.433 199.506 695.778c1.492 5.028 2.35 10.805 2.35 16.783 0 27.739-18.488 51.16-43.813 58.614l-0.432 0.109zM352.806 136.382c-6.552-22.53-27.010-38.717-51.25-38.717-5.332 0-10.48 0.783-15.338 2.241l0.377-0.097c-22.407 6.632-38.477 27.029-38.477 51.181 0 5.283 0.769 10.386 2.201 15.204l-0.096-0.377c6.63 22.493 27.093 38.631 51.327 38.631 5.229 0 10.283-0.751 15.059-2.152l-0.378 0.095c22.456-6.68 38.553-27.137 38.553-51.355 0-5.219-0.748-10.263-2.141-15.031l0.095 0.378z" />
<glyph unicode="&#xe904;" glyph-name="instagram" d="M658.286 448q0 60.571-42.857 103.429t-103.429 42.857-103.429-42.857-42.857-103.429 42.857-103.429 103.429-42.857 103.429 42.857 42.857 103.429zM737.143 448q0-93.714-65.714-159.429t-159.429-65.714-159.429 65.714-65.714 159.429 65.714 159.429 159.429 65.714 159.429-65.714 65.714-159.429zM798.857 682.286q0-21.714-15.429-37.143t-37.143-15.429-37.143 15.429-15.429 37.143 15.429 37.143 37.143 15.429 37.143-15.429 15.429-37.143zM512 808q-4 0-43.714 0.286t-60.286 0-55.143-1.714-58.857-5.714-40.857-10.571q-28.571-11.429-50.286-33.143t-33.143-50.286q-6.286-16.571-10.571-40.857t-5.714-58.857-1.714-55.143 0-60.286 0.286-43.714-0.286-43.714 0-60.286 1.714-55.143 5.714-58.857 10.571-40.857q11.429-28.571 33.143-50.286t50.286-33.143q16.571-6.286 40.857-10.571t58.857-5.714 55.143-1.714 60.286 0 43.714 0.286 43.714-0.286 60.286 0 55.143 1.714 58.857 5.714 40.857 10.571q28.571 11.429 50.286 33.143t33.143 50.286q6.286 16.571 10.571 40.857t5.714 58.857 1.714 55.143 0 60.286-0.286 43.714 0.286 43.714 0 60.286-1.714 55.143-5.714 58.857-10.571 40.857q-11.429 28.571-33.143 50.286t-50.286 33.143q-16.571 6.286-40.857 10.571t-58.857 5.714-55.143 1.714-60.286 0-43.714-0.286zM950.857 448q0-130.857-2.857-181.143-5.714-118.857-70.857-184t-184-70.857q-50.286-2.857-181.143-2.857t-181.143 2.857q-118.857 5.714-184 70.857t-70.857 184q-2.857 50.286-2.857 181.143t2.857 181.143q5.714 118.857 70.857 184t184 70.857q50.286 2.857 181.143 2.857t181.143-2.857q118.857-5.714 184-70.857t70.857-184q2.857-50.286 2.857-181.143z" />
<glyph unicode="&#xe905;" glyph-name="facebook" d="M767.429 953.143v-150.857h-89.714q-49.143 0-66.286-20.571t-17.143-61.714v-108h167.429l-22.286-169.143h-145.143v-433.714h-174.857v433.714h-145.714v169.143h145.714v124.571q0 106.286 59.429 164.857t158.286 58.571q84 0 130.286-6.857z" />
<glyph unicode="&#xe906;" glyph-name="arrow-down" horiz-adv-x="4438" d="M2219.058-64v0l-2219.058 1024h284.864l1934.194-892.568 1934.194 892.568h284.864l-2219.058-1024z" />
<glyph unicode="&#xe907;" glyph-name="arrows" horiz-adv-x="1467" d="M1466.561 447.92l-671.16-512.080v255.96l335.5 256.119-335.5 255.96v255.96l671.16-511.92zM671.16 447.92l-671.16-512.080v255.96l335.5 256.119-335.5 255.96v255.96l671.16-511.92z" />
<glyph unicode="&#xe908;" glyph-name="check-circle" horiz-adv-x="1103" d="M1091.226 869.649c7.139-7.131 11.556-16.986 11.556-27.873s-4.416-20.743-11.555-27.873v0l-551.353-551.435c-7.131-7.139-16.986-11.556-27.873-11.556s-20.743 4.416-27.873 11.555v0l-236.282 236.282c-7.133 7.133-11.545 16.988-11.545 27.873 0 21.77 17.648 39.419 39.419 39.419 10.885 0 20.74-4.412 27.873-11.545v0l208.368-208.203 523.438 523.356c7.131 7.139 16.986 11.556 27.873 11.556s20.743-4.416 27.873-11.555v0zM511.959 881.212c-239.279 0-433.253-193.974-433.253-433.253s193.974-433.253 433.253-433.253c239.279 0 433.253 193.974 433.253 433.253v0c0 21.757 17.637 39.394 39.394 39.394s39.394-17.637 39.394-39.394v0c-0.030-282.77-229.267-511.988-512.041-511.988-282.793 0-512.041 229.249-512.041 512.041s229.249 512.041 512.041 512.041c94.264 0 182.579-25.472 258.437-69.909l-2.416 1.308c12.741-6.699 21.281-19.844 21.281-34.983 0-21.757-17.637-39.394-39.394-39.394-7.904 0-15.265 2.328-21.433 6.335l0.153-0.093c-61.883 36.396-136.315 57.895-215.768 57.895-0.302 0-0.604 0-0.905-0.001h0.047z" />
<glyph unicode="&#xe909;" glyph-name="location-pin" horiz-adv-x="761" d="M380.613 719.297c-77.371 0-140.093-62.722-140.093-140.093s62.722-140.093 140.093-140.093c77.371 0 140.093 62.722 140.093 140.093v0c0 77.371-62.722 140.093-140.093 140.093v0zM380.613 509.187c-38.669 0-70.016 31.347-70.016 70.016s31.347 70.016 70.016 70.016c38.669 0 70.016-31.347 70.016-70.016v0c0-0.036 0-0.080 0-0.123 0-38.669-31.347-70.016-70.016-70.016 0 0 0 0 0 0v0zM649.702 848.6c-68.867 68.759-163.948 111.28-268.96 111.28-210.24 0-380.674-170.434-380.674-380.674 0-77.175 22.966-148.986 62.435-208.972l-0.887 1.436 264.614-406.24c11.755-17.818 31.684-29.414 54.321-29.414s42.566 11.596 54.17 29.171l0.15 0.243 264.614 406.24c38.676 58.602 61.699 130.496 61.699 207.768 0 105.113-42.603 200.276-111.483 269.163l0.001-0.001zM640.812 409.926l-260.261-399.557-260.2 399.557c-31.553 47.812-50.336 106.469-50.336 169.512 0 171.538 139.059 310.597 310.597 310.597s310.597-139.059 310.597-310.597c0-63.044-18.783-121.7-51.058-170.679l0.722 1.167z" />
</font></defs></svg>