{
	"version": 1,
	"settings" : {
		"custom" : {
			"group" : {
				"PaddingBottom": "50px",
				"PaddingTop": "50px",
				"PaddingRight": "15px",
				"PaddingLeft": "15px"
			},
			"content" : {
				"contentSize": "1060px"
			},
			"header" : {
				"contentSize": "1060px",
				"menu" : {
					"fontSize": "15px",
					"textTransform": "uppercase"
				}
			},
			"footer" : {
				"contentSize": "1060px"
			},
			"heading" : {
				"marginBottom": "25px"
			},
			"paragraph" : {
				"marginBottom": "25px"
			},
			"listItem" : {
				"marginBottom": "5px"
			},
			"form" : {
				"button" : {
					"borderRadius": "5px",
					"borderWidth": "1px",
					"fontWidth": "5px",
					"fontSize": "1rem",
					"textTransform": "uppercase"
				},
				"input" : {
					"borderRadius": "5px",
					"borderColor": "#8c8f94"
				}
			}
		},
		"color" : {
			"palette": [
				{
					"slug": "primary",
					"color": "#FF6B27",
					"name": "Primary"
				},
				{
					"slug": "primary-dark",
					"color": "#635D5F",
					"name": "Primary Dark"
				},
				{
					"slug": "primary-alt",
					"color": "#FF9A57",
					"name": "Primary alt"
				},
				{
					"slug": "secondary",
					"color": "#f2547d",
					"name": "Secondary"
				},
				{
					"slug": "secondary-dark",
					"color": "#E7E5E6",
					"name": "Secondary Dark"
				}
			]
		},
		"layout" : {
			"contentSize": "1240px"
		},
		"typography" : {
			"fontSizes": [
				{
					"slug": "extra-small",
					"size": "0.8rem",
					"name": "Extra small"
				},
				{
					"slug": "small",
					"size": "0.9rem",
					"name": "Small"
				},
				{
					"slug": "normal",
					"size": "1rem",
					"name": "Normal"
				},
				{
					"slug": "large",
					"size": "1.5rem",
					"name": "Large"
				},
				{
					"slug": "extra-large",
					"size": "3rem",
					"name": "Extra large"
				},
				{
					"slug": "huge",
					"size": "6rem",
					"name": "Huge"
				}
			]
		}
	},
	"styles" : {
		"elements" : {
			"p" : {
				"typography" : {
					"lineHeight" : 1.5
				}
			},
			"h1" : {
				"typography" : {
					"fontSize": "5.875rem",
					"lineHeight": 1.2
				}
			},
			"h2" : {
				"typography" : {
					"fontSize": "4.5rem",
					"lineHeight": 1.2
				}
			},
			"h3" : {
				"typography" : {
					"fontSize": "3.875rem",
					"lineHeight": 1
				}
			},
			"h4" : {
				"typography" : {
					"fontSize": "1.875rem",
					"lineHeight": 1
				}
			},
			"h5" : {
				"typography" : {
					"fontSize": "1.6rem",
					"lineHeight": 1
				}
			},
			"h6" : {
				"typography" : {
					"fontSize": "1.4rem",
					"lineHeight": 1
				}
			},
			"link" : {
				"color" : {
					"text": "#00838f"
				}
			}
		},
		"spacing" : {
			"blockGap": "0px"
		}
	}
}